2015-04-16 17:31:20.254  Info    [trace.er.eventlog.plk.aus]   <jr-44> 1429198280254|101-1429198279-00211|7120|CDPA_NUM:2219500|CGPA_NUM:48691009282|CALL_SCEN:5|SK:-1|CDPA_NUM_TON:3|CGPA_NUM_TON:4|LOC_INFO:7e9762f0104b65ff65|REDPA_NUM:|REDPA_NUM_TON:-1|
2015-04-16 17:31:20.260  Info    [trace.er.eventlog.plk.aus]   <jr-7> 1429198280260|101-1429198279-00211|7121|CDPA_NUM:2219500|CGPA_NUM:48691009282|CALL_SCEN:0|PREFIX:|ANN_ID:6|FCI_ID:|SCI_ID:|ADDITIONAL_INFO:|
2015-04-16 17:31:20.267  Info    [trace.er.eventlog.plk.aus]   <jr-7> 1429198280267|101-1429198279-00211|7114|monitorMode:NotifyAndContinue|service:AUS|EventTypeBCSM:oAbandon|legType:CALLING_PARTY|
2015-04-16 17:31:30.961  Info    [trace.er.eventlog.plk.aus]   <jr-20> 1429198290961|101-1429198279-00211|7112|Event_Data:PA|Ann_Id:[6]|service:AUS|
2015-04-16 17:31:30.966  Info    [trace.er.eventlog.plk.aus]   <jr-20> 1429198290966|101-1429198279-00211|7122|CDPA_NUM:2219500|CGPA_NUM:48691009282|CALL_SCEN:0|
