2015-04-16 11:44:10.654  Info    [trace.er.eventlog.plk.aus]   <jr-36> 1429177450654|101-1429177450-00121|7120|CDPA_NUM:2219500|CGPA_NUM:48691009282|CALL_SCEN:5|SK:-1|CDPA_NUM_TON:3|CGPA_NUM_TON:4|LOC_INFO:7e9762f0104b65ff65|REDPA_NUM:|REDPA_NUM_TON:-1|
2015-04-16 11:44:10.661  Info    [trace.er.eventlog.plk.aus]   <jr-2> 1429177450661|101-1429177450-00121|7121|CDPA_NUM:2219500|CGPA_NUM:48691009282|CALL_SCEN:3|PREFIX:D6600|ANN_ID:|FCI_ID:|SCI_ID:20|ADDITIONAL_INFO:|
2015-04-16 11:44:10.674  Info    [trace.er.eventlog.plk.aus]   <jr-2> 1429177450674|101-1429177450-00121|7107|E2:|E1:|ZONE_ID:300|TYPE_OF_CHARGING:2|E4:|service:AUS|EVENT_DATA:SCI|E7:|SCI_ID:20|
2015-04-16 11:44:10.676  Info    [trace.er.eventlog.plk.aus]   <jr-2> 1429177450676|101-1429177450-00121|7109|Redirecting Nature:|Address:d66002219500|service:AUS|Redirecting Number:|Nature:NATIONAL|
